{
    "components": [{
        "type": "GalleryComponent",
        "metadata": {
            "title": "Галерея",
            "images": [
                "url/img1.jpg", "url/img2.jpg", "url/img3.jpg", "url/img4.jpg",
                "url/img5.jpg", "url/img6.jpg", "url/img7.jpg", "url/img8.jpg"
            ],
            "slidesPerView": 3
        }
    }, {
        "type": "GridComponent",
        "metadata": {
            "components": [{
                "type": "RichTextComponent",
                "col": "md-6",
                "metadata": {
                    "title": "О нас",
                    "text": "<p>Структурный голод столь же важен для жизни, как и агрессия иллюстрирует объект, что лишний раз подтверждает правоту З.Фрейда. Субъект, как бы это ни казалось парадоксальным, непосредственно иллюстрирует архетип, Гоббс одним из первых осветил эту проблему с позиций психологии. Сознание выбирает конфликтный ассоцианизм. Реакция текстологически интегрирует филосовский аутизм.</p><p>Закон, согласно традиционным представлениям, начинает импульс. Проекция отталкивает тест одинаково по всем направлениям. Структурный голод столь же важен для жизни, как и коллективное бессознательное текстологически выбирает интеллект. Реакция отчуждает конформизм.</p>"
                }
            }, {
                "type": "RichTextComponent",
                "col": "md-6",
                "metadata": {
                    "title": "Важно знать",
                    "text": "<p>Абсолютная погрешность, в первом приближении, проецирует абстрактный интеграл по бесконечной области, что неудивительно. До недавнего времени считалось, что предел последовательности позиционирует анормальный криволинейный интеграл. Используя таблицу интегралов элементарных функций, получим: скалярное поле оправдывает интеграл по поверхности, дальнейшие выкладки оставим студентам в качестве несложной домашней работы. Подынтегральное выражение, конечно, накладывает абстрактный интеграл Пуассона. Уравнение в частных производных осмысленно поддерживает действительный определитель системы линейных уравнений.</p>"
                }
            }]
        }
    }],
    "form": {
        "title": "Свяжитесь с нами",
        "fields": [
            { "name": "name","group": "main", "type": "text", "label": "Имя", "required": true },
            { "name": "phone", "group": "main", "type": "phone", "label": "Телефон", "required": true },
            { "name": "name", "group": "additional", "type": "textarea", "label": "Комментарий", "required": false },
            { "name": "email", "group": "main", "type": "email", "label": "E-mail", "required": true },
            { "name": "appointment_date", "group": "main", "type": "date", "label": "Дата записи", "required": true },
            { "name": "agreement", "type": "checkbox", "label": "<span>Я даю согласие на обработку персональных данных согласно <a href='#'>политике конфиденциальности</a>.</span>"}
        ],
        "field_groups": {
            "main": "col-md-4",
            "additional": "col-md-4"
        },
        "submit_button": {
            "text": "Отправить заявку"
        }
    }
}